DataViz 2022 - Workflow de análisis
…
Leer datos en diferentes formatos

En esta sección vamos a ver como leer archivos y algunas operaciones básicas usando la libreria Tidyverse. Recuerda que antes de utilizar esta libreria hay que llamarla en el script o comandos previamente:

library(tidyverse)

Importar un archivo separado por comas (CSV)

Los archivos CSV son archivos en donde cada columna esta separada por comas. Para poder leer este tipo de archivos, la libreria readr (que es parte del Tidyverse), tiene una función llamada read_csv. Por ejemplo:

# Este comando va a leer un archivo csv y guardarlo en la variable gapminder
gapminder <- read_csv("datos/gapminder.csv")
gapminder

# A tibble: 1,704 × 6
   country     continent  year lifeExp      pop gdpPercap
   <chr>       <chr>     <dbl>   <dbl>    <dbl>     <dbl>
 1 Afghanistan Asia       1952    28.8  8425333      779.
 2 Afghanistan Asia       1957    30.3  9240934      821.
 3 Afghanistan Asia       1962    32.0 10267083      853.
 4 Afghanistan Asia       1967    34.0 11537966      836.
 5 Afghanistan Asia       1972    36.1 13079460      740.
 6 Afghanistan Asia       1977    38.4 14880372      786.
 7 Afghanistan Asia       1982    39.9 12881816      978.
 8 Afghanistan Asia       1987    40.8 13867957      852.
 9 Afghanistan Asia       1992    41.7 16317921      649.
10 Afghanistan Asia       1997    41.8 22227415      635.
# … with 1,694 more rows
# ℹ Use `print(n = ...)` to see more rows

En este caso vemos que el archivo fue leido correctamente y consiste en 1704 observaciones en 6 columnas.

Importar archivos con diferentes formatos

En númerosas ocasiones nos vamos a encontrar con que los archivos que necesitamos leer, no vienen en el formato adecuado. Por ejemplo, si tratamos de leer este archivo con el comando read_csv nos damos cuenta que tenemos problemas:

gapminder2 <- read_csv("datos/gapminder_csv2.csv")

Warning: One or more parsing issues, see `problems()` for details

gapminder2

# A tibble: 1,704 × 1
   `country;continent;year;lifeExp;pop;gdpPercap`       
   <chr>                                                
 1 Afghanistan;Asia;1952;28,80100;   8425333;   779,4453
 2 Afghanistan;Asia;1957;30,33200;   9240934;   820,8530
 3 Afghanistan;Asia;1962;31,99700;  10267083;   853,1007
 4 Afghanistan;Asia;1967;34,02000;  11537966;   836,1971
 5 Afghanistan;Asia;1972;36,08800;  13079460;   739,9811
 6 Afghanistan;Asia;1977;38,43800;  14880372;   786,1134
 7 Afghanistan;Asia;1982;39,85400;  12881816;   978,0114
 8 Afghanistan;Asia;1987;40,82200;  13867957;   852,3959
 9 Afghanistan;Asia;1992;41,67400;  16317921;   649,3414
10 Afghanistan;Asia;1997;41,76300;  22227415;   635,3414
# … with 1,694 more rows
# ℹ Use `print(n = ...)` to see more rows

En este caso, vemos que al leer esta tabla, queda en una sola columna. Esto se debe a que la separación de las columnas no es con comas, si no que un caracter diferente (en este caso punto y coma). Para poder leer la tabla, tenemos que ocupar otro comando en donde definimos el tipo de delimitador que separa a las columnas. En este caso ocupamos la función read_delim:

gapminder2_fixed <- read_delim(
    "datos/gapminder_csv2.csv",
    delim = ";"
)
gapminder2_fixed

# A tibble: 1,704 × 6
   country     continent  year lifeExp pop          gdpPercap    
   <chr>       <chr>     <dbl>   <dbl> <chr>        <chr>        
 1 Afghanistan Asia       1952 2880100 "   8425333" "   779,4453"
 2 Afghanistan Asia       1957 3033200 "   9240934" "   820,8530"
 3 Afghanistan Asia       1962 3199700 "  10267083" "   853,1007"
 4 Afghanistan Asia       1967 3402000 "  11537966" "   836,1971"
 5 Afghanistan Asia       1972 3608800 "  13079460" "   739,9811"
 6 Afghanistan Asia       1977 3843800 "  14880372" "   786,1134"
 7 Afghanistan Asia       1982 3985400 "  12881816" "   978,0114"
 8 Afghanistan Asia       1987 4082200 "  13867957" "   852,3959"
 9 Afghanistan Asia       1992 4167400 "  16317921" "   649,3414"
10 Afghanistan Asia       1997 4176300 "  22227415" "   635,3414"
# … with 1,694 more rows
# ℹ Use `print(n = ...)` to see more rows

En otros casos, el formato de la tabla puede ser el adecuado, pero el archivo mismo incluir información que queremos ignorar al momento de importar los datos en R. Por ejemplo:

gapminder3 <- read_csv("datos/gapminder_messier.csv")

Warning: One or more parsing issues, see `problems()` for details

gapminder3

# A tibble: 1,706 × 1
   `# Some comment about the data`                  
   <chr>                                            
 1 And maybe a personal note                        
 2 country,continent,year,lifeExp,pop,gdpPercap     
 3 Afghanistan,Asia,1952,28.801,8425333,779.4453145 
 4 Afghanistan,Asia,1957,30.332,9240934,820.8530296 
 5 Afghanistan,Asia,1962,31.997,10267083,853.10071  
 6 Afghanistan,Asia,1967,34.02,11537966,836.1971382 
 7 Afghanistan,Asia,1972,36.088,13079460,739.9811058
 8 Afghanistan,Asia,1977,38.438,14880372,786.11336  
 9 Afghanistan,Asia,1982,39.854,12881816,978.0114388
10 Afghanistan,Asia,1987,40.822,13867957,852.3959448
# … with 1,696 more rows
# ℹ Use `print(n = ...)` to see more rows

En este caso, R entrega un mensaje de aviso, porque hay columna que no tienen el formato adecuado. Al ver el resultado, vemos que las dos primeras lineas contienen información como texto, pero no son parte de las columnas. En este caso podemos ignorar esas dos primeras filas al momento de leer el archivo:

gapminder3_fixed <- read_delim(
    "datos/gapminder_messier.csv",
    skip=2,
    delim = ","
)
gapminder3_fixed

# A tibble: 1,704 × 6
   country     continent  year lifeExp      pop gdpPercap
   <chr>       <chr>     <dbl>   <dbl>    <dbl>     <dbl>
 1 Afghanistan Asia       1952    28.8  8425333      779.
 2 Afghanistan Asia       1957    30.3  9240934      821.
 3 Afghanistan Asia       1962    32.0 10267083      853.
 4 Afghanistan Asia       1967    34.0 11537966      836.
 5 Afghanistan Asia       1972    36.1 13079460      740.
 6 Afghanistan Asia       1977    38.4 14880372      786.
 7 Afghanistan Asia       1982    39.9 12881816      978.
 8 Afghanistan Asia       1987    40.8 13867957      852.
 9 Afghanistan Asia       1992    41.7 16317921      649.
10 Afghanistan Asia       1997    41.8 22227415      635.
# … with 1,694 more rows
# ℹ Use `print(n = ...)` to see more rows

Manipulación de tablas

Una vez que tenemos la información en R, podemos ocupar diferentes funciones para explorar estos datos. Vamos usar la tabla gapminder

gapminder

# A tibble: 1,704 × 6
   country     continent  year lifeExp      pop gdpPercap
   <chr>       <chr>     <dbl>   <dbl>    <dbl>     <dbl>
 1 Afghanistan Asia       1952    28.8  8425333      779.
 2 Afghanistan Asia       1957    30.3  9240934      821.
 3 Afghanistan Asia       1962    32.0 10267083      853.
 4 Afghanistan Asia       1967    34.0 11537966      836.
 5 Afghanistan Asia       1972    36.1 13079460      740.
 6 Afghanistan Asia       1977    38.4 14880372      786.
 7 Afghanistan Asia       1982    39.9 12881816      978.
 8 Afghanistan Asia       1987    40.8 13867957      852.
 9 Afghanistan Asia       1992    41.7 16317921      649.
10 Afghanistan Asia       1997    41.8 22227415      635.
# … with 1,694 more rows
# ℹ Use `print(n = ...)` to see more rows

Vemos que esta tabla tiene 6 columnas: - country - continent - year - lifeExp - pop - gdpPercap

select

Si quisieramos elegir algunas columnas desde la tabla completa, podemos ocupar la función select. En este caso indicamos a la función la fuente de los datos ( gapminder ) y las columnas a elegir (country, year, pop)

select(gapminder,
       country, year, pop)

# A tibble: 1,704 × 3
   country      year      pop
   <chr>       <dbl>    <dbl>
 1 Afghanistan  1952  8425333
 2 Afghanistan  1957  9240934
 3 Afghanistan  1962 10267083
 4 Afghanistan  1967 11537966
 5 Afghanistan  1972 13079460
 6 Afghanistan  1977 14880372
 7 Afghanistan  1982 12881816
 8 Afghanistan  1987 13867957
 9 Afghanistan  1992 16317921
10 Afghanistan  1997 22227415
# … with 1,694 more rows
# ℹ Use `print(n = ...)` to see more rows

También podemos elegir columnas en base a los nombres de estas. Por ejemplo seleccionar todas las columnas que parten con la letra c:

select(gapminder, starts_with("c"))

# A tibble: 1,704 × 2
   country     continent
   <chr>       <chr>    
 1 Afghanistan Asia     
 2 Afghanistan Asia     
 3 Afghanistan Asia     
 4 Afghanistan Asia     
 5 Afghanistan Asia     
 6 Afghanistan Asia     
 7 Afghanistan Asia     
 8 Afghanistan Asia     
 9 Afghanistan Asia     
10 Afghanistan Asia     
# … with 1,694 more rows
# ℹ Use `print(n = ...)` to see more rows
…
También podemos elegir varios paises a la vez, pasando un vector y ocupando el comando %in%:

filter(gapminder,
       country %in% c("Chile", "Argentina"))

# A tibble: 24 × 6
   country   continent  year lifeExp      pop gdpPercap
   <chr>     <chr>     <dbl>   <dbl>    <dbl>     <dbl>
 1 Argentina Americas   1952    62.5 17876956     5911.
 2 Argentina Americas   1957    64.4 19610538     6857.
 3 Argentina Americas   1962    65.1 21283783     7133.
 4 Argentina Americas   1967    65.6 22934225     8053.
 5 Argentina Americas   1972    67.1 24779799     9443.
 6 Argentina Americas   1977    68.5 26983828    10079.
 7 Argentina Americas   1982    69.9 29341374     8998.
 8 Argentina Americas   1987    70.8 31620918     9140.
 9 Argentina Americas   1992    71.9 33958947     9308.
10 Argentina Americas   1997    73.3 36203463    10967.
# … with 14 more rows
# ℹ Use `print(n = ...)` to see more rows
…
mutate

Asi como podemos seleccionar valores y columnas, también podemos crear nuevas columnas usando otras. Por ejemplo, calculemos el gdp para cada fila:

mutate(gapminder,
       gdp = pop * gdpPercap)

# A tibble: 1,704 × 7
   country     continent  year lifeExp      pop gdpPercap          gdp
   <chr>       <chr>     <dbl>   <dbl>    <dbl>     <dbl>        <dbl>
 1 Afghanistan Asia       1952    28.8  8425333      779.  6567086330.
 2 Afghanistan Asia       1957    30.3  9240934      821.  7585448670.
 3 Afghanistan Asia       1962    32.0 10267083      853.  8758855797.
 4 Afghanistan Asia       1967    34.0 11537966      836.  9648014150.
 5 Afghanistan Asia       1972    36.1 13079460      740.  9678553274.
 6 Afghanistan Asia       1977    38.4 14880372      786. 11697659231.
 7 Afghanistan Asia       1982    39.9 12881816      978. 12598563401.
 8 Afghanistan Asia       1987    40.8 13867957      852. 11820990309.
 9 Afghanistan Asia       1992    41.7 16317921      649. 10595901589.
10 Afghanistan Asia       1997    41.8 22227415      635. 14121995875.
# … with 1,694 more rows
# ℹ Use `print(n = ...)` to see more rows

En este caso creamos una nueva columna llamada gdp , la cual es el resultado de la multiplicacion de las columnas pop (población) y gdpPercap (el gdp per capita).

Combinando multiples funciones

Podemos combinar diferentes funciones en un mismo pipeline ocupando el comando %>% para concatenar diferentes pasos. Asi, podemos combinar varias funciones. En este caso lo que vamos a hacer es tomar la tabla gapminder, aplicar un filtro, luego calcular una nueva columna y finalmente seleccionar columnas de interes:

gapminder %>%
    filter(year > 2000) %>%
    mutate(gdp = pop * gdpPercap) %>%
    select(country, year, gdp)

# A tibble: 284 × 3
   country      year           gdp
   <chr>       <dbl>         <dbl>
 1 Afghanistan  2002  18363410424.
 2 Afghanistan  2007  31079291949.
 3 Albania      2002  16153932130.
 4 Albania      2007  21376411360.
 5 Algeria      2002 165447670333.
 6 Algeria      2007 207444851958.
 7 Angola       2002  30134833901.
 8 Angola       2007  59583895818.
 9 Argentina    2002 337223430800.
10 Argentina    2007 515033625357.
# … with 274 more rows
# ℹ Use `print(n = ...)` to see more rows

Al igual que veamis anteriormente, podemos tambien asignar los resultados de los análisis a una nueva variable, guardando asi los resultados. Por ejemplo:

gdp_2000 <- gapminder %>%
    filter(year > 2000) %>%
    mutate(gdp = pop * gdpPercap) %>%
    select(country, year, gdp)
gdp_2000

# A tibble: 284 × 3
   country      year           gdp
   <chr>       <dbl>         <dbl>
 1 Afghanistan  2002  18363410424.
 2 Afghanistan  2007  31079291949.
 3 Albania      2002  16153932130.
 4 Albania      2007  21376411360.
 5 Algeria      2002 165447670333.
 6 Algeria      2007 207444851958.
 7 Angola       2002  30134833901.
 8 Angola       2007  59583895818.
 9 Argentina    2002 337223430800.
10 Argentina    2007 515033625357.
# … with 274 more rows
# ℹ Use `print(n = ...)` to see more rows
…
El comando summarise entrega una nueva tabla resumida. Si solo queremos agregar una nueva columna en base al resultado del agrupamiento, podemos ocupar mutate. Por ejemplo:

pctPop_table <- gapminder %>%
    group_by(continent, year) %>%
    mutate(pctPop = pop / sum(pop) * 100)

pctPop_table

# A tibble: 1,704 × 7
# Groups:   continent, year [60]
   country     continent  year lifeExp      pop gdpPercap pctPop
   <chr>       <chr>     <dbl>   <dbl>    <dbl>     <dbl>  <dbl>
 1 Afghanistan Asia       1952    28.8  8425333      779.  0.604
 2 Afghanistan Asia       1957    30.3  9240934      821.  0.591
 3 Afghanistan Asia       1962    32.0 10267083      853.  0.605
 4 Afghanistan Asia       1967    34.0 11537966      836.  0.605
 5 Afghanistan Asia       1972    36.1 13079460      740.  0.608
 6 Afghanistan Asia       1977    38.4 14880372      786.  0.624
 7 Afghanistan Asia       1982    39.9 12881816      978.  0.494
 8 Afghanistan Asia       1987    40.8 13867957      852.  0.483
 9 Afghanistan Asia       1992    41.7 16317921      649.  0.521
10 Afghanistan Asia       1997    41.8 22227415      635.  0.657
# … with 1,694 more rows
# ℹ Use `print(n = ...)` to see more rows
…
